no,kecamatan,2008,2009,2010,2011,2012,2013,2014,2015,2016,2017,2018,2019,2020,2021,2022,2023,2024,2025,2026,2027,2028,2029,2030,2031
1,Sukasari,14895.1025,15456.92875,16018.755,16580.58125,17142.4075,17518.905,17895.585,18272.0825,18648.58,19025.0775,19401.575,19778.0725,20154.57,20531.0675,20907.565,21284.245,21660.925,22037.605,22414.285,22790.965,23167.645,23544.325,23921.005,24297.685
2,Sukajadi,17899.4175,19033.700625,20167.98375,21302.266875,22436.55,22929.3,23422.05,23914.9825,24407.7325,24900.4825,25393.2325,25886.165,26378.915,26871.665,27364.415,27857.3475,28350.28,28843.2125,29336.145,29829.0775,30322.01,30814.9425,31307.875,31800.8075
3,Cicendo,17777.69,19079.325625,20380.96125,21682.596875,22984.2325,23489.0275,23993.8225,24498.6175,25003.4125,25508.39,26013.185,26517.98,27022.775,27527.57,28032.5475,28537.3425,29042.1375,29546.9325,30051.7275,30556.5225,31061.3175,31566.1125,32070.9075,32575.7025
4,Andir,21769.1475,22221.0175,22672.8875,23124.7575,23576.6275,24094.5625,24612.315,25130.25,25648.0025,26165.9375,26683.69,27201.625,27719.3775,28237.3125,28755.065,29273,29790.935,30308.87,30826.805,31344.74,31862.675,32380.61,32898.545,33416.48
5,Cidadap,9677.61,10251.5725,10825.535,11399.4975,11973.46,12236.4425,12499.425,12762.4075,13025.39,13288.3725,13551.355,13814.3375,14077.32,14340.3025,14603.285,14866.2675,15129.25,15392.2325,15655.215,15918.1975,16181.18,16444.1625,16707.145,16970.1275
6,Coblong,20712.1075,22552.0725,24392.0375,26232.0025,28071.9675,28688.635,29305.12,29921.7875,30538.2725,31154.94,31771.425,32388.0925,33004.5775,33621.245,34237.73,34854.3975,35471.065,36087.7325,36704.4,37321.0675,37937.735,38554.4025,39171.07,39787.7375
7,Bandung Wetan,6435.8625,6588.52375,6741.185,6893.84625,7046.5075,7201.2675,7356.0275,7510.7875,7665.5475,7820.3075,7975.0675,8130.01,8284.77,8439.53,8594.29,8749.05,8903.81,9058.57,9213.33,9368.09,9522.85,9677.61,9832.37,9987.13
8,Sumur Bandung,7386.3225,7761.679375,8137.03625,8512.393125,8887.75,9083.025,9278.3,9473.575,9668.85,9864.125,10059.4,10254.675,10449.95,10645.225,10839.9525,11035.2275,11230.5025,11425.7775,11621.0525,11816.3275,12011.6025,12206.8775,12402.1525,12597.4275
9,Cibeunying Kaler,12428.7975,13151.725625,13874.65375,14597.581875,15320.51,15657.04,15993.57,16330.1,16666.63,17003.16,17339.69,17676.22,18012.75,18349.28,18685.445,19021.975,19358.505,19695.035,20031.565,20368.095,20704.625,21041.155,21377.685,21714.215
10,Cibeunying Kidul,18818.1225,20279.30875,21740.495,23201.68125,24662.8675,25204.71,25746.5525,26288.395,26830.2375,27372.08,27913.9225,28455.765,28997.6075,29539.45,30080.015,30621.675,31163.335,31704.995,32246.655,32788.315,33329.975,33871.635,34413.295,34954.955
11,Astanaanyar,13760.5,14235.593125,14710.68625,15185.779375,15660.8725,16004.885,16348.8975,16692.91,17036.9225,17380.935,17724.9475,18068.96,18412.9725,18756.985,19100.6325,19444.645,19788.6575,20132.67,20476.6825,20820.695,21164.7075,21508.72,21852.7325,22196.745
12,Bojongloa Kaler,20489.0925,22076.4775,23663.8625,25251.2475,26838.6325,27428.1075,28017.5825,28607.0575,29196.5325,29786.0075,30375.4825,30964.9575,31554.4325,32143.9075,32733.3825,33322.8575,33912.3325,34501.8075,35091.2825,35680.7575,36270.2325,36859.7075,37449.1825,38038.6575
13,Babakan Ciparay,20712.29,23432.406875,26152.52375,28872.640625,31592.7575,32286.6225,32980.4875,33674.3525,34368.2175,35062.0825,35755.9475,36449.8125,37143.6775,37837.5425,38531.7725,39225.6375,39919.5025,40613.3675,41307.2325,42001.0975,42694.9625,43388.8275,44082.6925,44776.5575
14,Bojongloa Kidul,13307.535,14478.683125,15649.83125,16820.979375,17992.1275,18387.24,18782.3525,19177.465,19572.5775,19967.69,20362.8025,20757.915,21153.0275,21548.14,21943.8,22339.095,22734.39,23129.685,23524.98,23920.275,24315.57,24710.865,25106.16,25501.455
15,Bandung Kulon,22056.4025,23499.2475,24942.0925,26384.9375,27827.7825,28438.975,29050.1675,29661.36,30272.5525,30883.745,31494.9375,32106.13,32717.3225,33328.515,33939.89,34551.0825,35162.275,35773.4675,36384.66,36995.8525,37607.045,38218.2375,38829.43,39440.6225
16,Regol,16086.0975,16865.326875,17644.55625,18423.785625,19203.015,19624.7725,20046.53,20468.2875,20890.045,21311.8025,21733.56,22155.3175,22577.075,22998.8325,23420.7725,23842.7125,24264.6525,24686.5925,25108.5325,25530.4725,25952.4125,26374.3525,26796.2925,27218.2325
17,Lengkong,13616.5075,14207.4425,14798.3775,15389.3125,15980.2475,16331.195,16682.1425,17033.09,17384.0375,17734.985,18085.9325,18436.88,18787.8275,19138.775,19490.27,19841.2175,20192.165,20543.1125,20894.06,21245.0075,21595.955,21946.9025,22297.85,22648.7975
18,Batununggal,22240.91,23528.949375,24816.98875,26105.028125,27393.0675,27994.77,28596.4725,29198.175,29799.8775,30401.58,31003.2825,31604.985,32206.6875,32808.39,33409.7275,34011.43,34613.1325,35214.835,35816.5375,36418.24,37019.9425,37621.645,38223.3475,38825.05
19,Kiaracondong,21252.49,23133.471875,25014.45375,26895.435625,28776.4175,29408.415,30040.4125,30672.41,31304.4075,31936.405,32568.4025,33200.4,33832.3975,34464.395,35096.94,35728.9375,36360.935,36992.9325,37624.93,38256.9275,38888.925,39520.9225,40152.92,40784.9175
20,Arcamanik,10254.675,10902.7325,11550.79,12198.8475,12846.905,13129.05,13411.195,13693.34,13975.485,14257.63,14539.775,14821.92,15104.065,15386.21,15668.72,15950.865,16233.01,16515.155,16797.3,17079.445,17361.59,17643.735,17925.88,18208.025
21,Cibiru,10977.1925,11562.971875,12148.75125,12734.530625,13320.31,13612.8575,13905.405,14197.9525,14490.5,14783.0475,15075.595,15368.1425,15660.69,15953.2375,16245.9675,16538.515,16831.0625,17123.61,17416.1575,17708.705,18001.2525,18293.8,18586.3475,18878.895
22,Antapani,15588.42,15017.3775,14446.335,13875.2925,13304.25,13596.4325,13888.615,14180.7975,14472.98,14765.1625,15057.345,15349.5275,15641.71,15933.8925,16226.44,16518.6225,16810.805,17102.9875,17395.17,17687.3525,17979.535,18271.7175,18563.9,18856.0825
23,Ujung Berung,12384.815,12706.243125,13027.67125,13349.099375,13670.5275,13970.9225,14271.3175,14571.7125,14872.1075,15172.5025,15472.8975,15773.2925,16073.6875,16374.0825,16673.2,16973.4125,17273.625,17573.8375,17874.05,18174.2625,18474.475,18774.6875,19074.9,19375.1125
24,Rancasari,13206.065,13726.509375,14246.95375,14767.398125,15287.8425,15623.6425,15959.4425,16295.2425,16631.0425,16966.8425,17302.6425,17638.4425,17974.2425,18310.0425,18645.66,18981.46,19317.26,19653.06,19988.86,20324.66,20660.46,20996.26,21332.06,21667.86
25,Buahbatu,16643.8175,17769.56875,18895.32,20021.07125,21146.8225,21611.4675,22076.1125,22540.7575,23005.4025,23470.0475,23934.6925,24399.3375,24863.9825,25328.6275,25791.63,26256.0925,26720.555,27185.0175,27649.48,28113.9425,28578.405,29042.8675,29507.33,29971.7925
26,Bandung Kidul,13307.535,12864.88125,12422.2275,11979.57375,11536.92,11790.4125,12043.905,12297.3975,12550.89,12804.3825,13057.875,13311.3675,13564.86,13818.3525,14070.9325,14324.2425,14577.5525,14830.8625,15084.1725,15337.4825,15590.7925,15844.1025,16097.4125,16350.7225
27,Panyileukan,6613.8,6881.80125,7149.8025,7417.80375,7685.805,7854.6175,8023.43,8192.2425,8361.055,8529.8675,8698.68,8867.4925,9036.305,9205.1175,9374.1125,9542.925,9711.7375,9880.55,10049.3625,10218.175,10386.9875,10555.8,10724.6125,10893.425
28,Gedebage,6061.92,6279.73375,6497.5475,6715.36125,6933.175,7085.38,7237.585,7389.79,7541.995,7694.2,7846.405,7998.61,8150.815,8303.02,8455.955,8608.16,8760.365,8912.57,9064.775,9216.98,9369.185,9521.39,9673.595,9825.8
29,Mandalajati,10450.315,11015.97375,11581.6325,12147.29125,12712.95,12992.175,13271.4,13550.625,13829.85,14109.075,14388.3,14667.525,14946.75,15225.975,15505.2,15784.425,16063.65,16342.875,16622.1,16901.325,17180.55,17459.775,17739,18018.225
30,Cinambo,3920.1,4255.17,4590.24,4925.31,5260.38,5375.9025,5491.425,5606.9475,5722.47,5837.9925,5953.515,6069.0375,6184.56,6300.0825,6415.605,6531.31,6647.015,6762.72,6878.425,6994.13,7109.835,7225.54,7341.245,7456.95
